<?xml version="1.0" standalone="no"?>
<!DOCTYPE svg PUBLIC "-//W3C//DTD SVG 1.1//EN" "http://www.w3.org/Graphics/SVG/1.1/DTD/svg11.dtd" >
<svg xmlns="http://www.w3.org/2000/svg">
<metadata>Generated by IcoMoon</metadata>
<defs>
<font id="icomoon" horiz-adv-x="1024">
<font-face units-per-em="1024" ascent="960" descent="-64" />
<missing-glyph horiz-adv-x="1024" />
<glyph unicode="&#x20;" horiz-adv-x="512" d="" />
<glyph unicode="&#xe8b6;" glyph-name="search" d="M406 340.667c106 0 192 86 192 192s-86 192-192 192-192-86-192-192 86-192 192-192zM662 340.667l212-212-64-64-212 212v34l-12 12c-48-42-112-66-180-66-154 0-278 122-278 276s124 278 278 278 276-124 276-278c0-68-24-132-66-180l12-12h34z" />
<glyph unicode="&#xe900;" glyph-name="triangle-left" d="M716.8 716.8v-512l-460.8 256 460.8 256z" />
<glyph unicode="&#xe901;" glyph-name="triangle-right" d="M768 460.8l-460.8-256v512l460.8-256z" />
<glyph unicode="&#xe902;" glyph-name="instagram" d="M870.4 921.6h-716.8c-56.32 0-102.4-46.080-102.4-102.4v-716.8c0-56.371 46.080-102.4 102.4-102.4h716.8c56.32 0 102.4 46.029 102.4 102.4v716.8c0 56.32-46.080 102.4-102.4 102.4zM511.181 178.022c156.621 0 283.546 127.027 283.546 283.597 0 17.306-2.202 33.997-5.274 50.381h80.947v-369.459c0-19.558-15.872-35.328-35.482-35.328h-645.837c-19.61 0-35.482 15.77-35.482 35.328v369.459h79.309c-3.123-16.384-5.325-33.075-5.325-50.381 0-156.621 127.027-283.597 283.597-283.597zM333.978 461.619c0 97.894 79.36 177.203 177.254 177.203 97.843 0 177.254-79.309 177.254-177.203s-79.411-177.254-177.254-177.254c-97.946 0-177.254 79.36-177.254 177.254zM834.918 665.6h-82.688c-19.558 0-35.43 15.974-35.43 35.43v82.79c0 19.558 15.872 35.379 35.379 35.379h82.688c19.661 0 35.533-15.821 35.533-35.379v-82.739c0-19.507-15.872-35.482-35.482-35.482z" />
<glyph unicode="&#xe903;" glyph-name="triangle-up" d="M768 256h-512l256 460.8 256-460.8z" />
<glyph unicode="&#xf081;" glyph-name="twitter-square" horiz-adv-x="878" d="M731.429 602.286q-32-14.286-69.143-19.429 38.857 22.857 53.143 66.857-37.143-21.714-76.571-29.143-34.857 37.714-87.429 37.714-49.714 0-84.857-35.143t-35.143-84.857q0-16.571 2.857-27.429-73.714 4-138.286 37.143t-109.714 88.571q-16.571-28.571-16.571-60.571 0-65.143 52-100-26.857 0.571-57.143 14.857v-1.143q0-42.857 28.571-76.286t70.286-41.429q-16.571-4.571-29.143-4.571-7.429 0-22.286 2.286 12-36 42.571-59.429t69.429-24q-66.286-51.429-149.143-51.429-14.857 0-28.571 1.714 84.571-53.714 184-53.714 64 0 120 20.286t96 54.286 68.857 78.286 42.857 92.571 14 96.286q0 10.286-0.571 15.429 36 25.714 60 62.286zM877.714 713.143v-548.571q0-68-48.286-116.286t-116.286-48.286h-548.571q-68 0-116.286 48.286t-48.286 116.286v548.571q0 68 48.286 116.286t116.286 48.286h548.571q68 0 116.286-48.286t48.286-116.286z" />
<glyph unicode="&#xf082;" glyph-name="facebook-square" horiz-adv-x="878" d="M713.143 877.714q68 0 116.286-48.286t48.286-116.286v-548.571q0-68-48.286-116.286t-116.286-48.286h-107.429v340h113.714l17.143 132.571h-130.857v84.571q0 32 13.429 48t52.286 16l69.714 0.571v118.286q-36 5.143-101.714 5.143-77.714 0-124.286-45.714t-46.571-129.143v-97.714h-114.286v-132.571h114.286v-340h-304q-68 0-116.286 48.286t-48.286 116.286v548.571q0 68 48.286 116.286t116.286 48.286h548.571z" />
<glyph unicode="&#xf098;" glyph-name="phone-square" horiz-adv-x="878" d="M731.429 269.143q0 6.286-1.143 9.143-1.714 4.571-22 16.857t-50.571 28.286l-30.286 16.571q-2.857 1.714-10.857 7.429t-14.286 8.571-12 2.857q-10.286 0-26.857-18.571t-32.571-37.429-25.143-18.857q-4 0-9.429 2t-8.857 3.714-9.714 5.429-8 4.857q-56.571 31.429-97.429 72.286t-72.286 97.429q-1.143 1.714-4.857 8t-5.429 9.714-3.714 8.857-2 9.429q0 7.429 11.714 19.143t25.714 22 25.714 22.571 11.714 20.857q0 5.714-2.857 12t-8.571 14.286-7.429 10.857q-1.714 3.429-8.571 16.286t-14.286 26-15.143 27.143-14.286 23.143-9.429 10.286-9.143 1.143q-27.429 0-57.714-12.571-26.286-12-45.714-54t-19.429-74.571q0-9.143 1.429-19.429t2.857-17.429 5.143-18.857 5.714-16.857 7.143-18.857 6.286-17.143q34.286-93.714 123.714-183.143t183.143-123.714q3.429-1.143 17.143-6.286t18.857-7.143 16.857-5.714 18.857-5.143 17.429-2.857 19.429-1.429q32.571 0 74.571 19.429t54 45.714q12.571 30.286 12.571 57.714zM877.714 713.143v-548.571q0-68-48.286-116.286t-116.286-48.286h-548.571q-68 0-116.286 48.286t-48.286 116.286v548.571q0 68 48.286 116.286t116.286 48.286h548.571q68 0 116.286-48.286t48.286-116.286z" />
<glyph unicode="&#xf0d3;" glyph-name="pinterest-square" horiz-adv-x="878" d="M713.143 877.714q68 0 116.286-48.286t48.286-116.286v-548.571q0-68-48.286-116.286t-116.286-48.286h-414.286q48.571 69.714 61.714 120 5.143 19.429 30.286 119.429 12-22.286 42-38.286t64.286-16q103.429 0 168.857 84.286t65.429 213.429q0 48-20 92.857t-55.143 79.429-87.143 55.429-112.571 20.857q-59.429 0-111.143-16.286t-87.429-43.714-61.429-62.571-38-73.143-12.286-75.714q0-58.286 22.571-102.857t66.571-62.857q7.429-2.857 13.429 0t8.286 10.857q5.714 25.143 8.571 34.857 3.429 13.143-6.286 24-28.571 35.429-28.571 85.714 0 85.714 59.143 146.571t154.571 60.857q85.143 0 132.857-46.286t47.714-120q0-96-38.571-163.429t-99.143-67.429q-34.286 0-55.429 24.857t-13.143 59.143q4.571 19.429 15.143 52.857t16.857 58.286 6.286 42.571q0 28-15.143 46.571t-43.143 18.571q-34.857 0-59.143-32.286t-24.286-79.714q0-41.143 13.714-69.143l-56-236.571q-13.714-57.143-4-145.143h-104.571q-68 0-116.286 48.286t-48.286 116.286v548.571q0 68 48.286 116.286t116.286 48.286h548.571z" />
<glyph unicode="&#xf166;" glyph-name="youtube-square" horiz-adv-x="878" d="M525.143 206.286v89.714c0 18.857-5.714 28.571-16.571 28.571-6.286 0-12.571-2.857-18.857-9.143v-128c6.286-6.286 12.571-9.143 18.857-9.143 10.857 0 16.571 9.143 16.571 28zM630.286 276h37.714v19.429c0 19.429-6.286 29.143-18.857 29.143s-18.857-9.714-18.857-29.143v-19.429zM304 428v-40h-45.714v-241.714h-42.286v241.714h-44.571v40h132.571zM418.857 356v-209.714h-38.286v22.857c-14.857-17.143-29.143-25.714-43.429-25.714-12 0-20.571 5.143-24 16-2.286 6.286-3.429 16-3.429 30.857v165.714h37.714v-154.286c0-8.571 0-13.714 0.571-14.857 0.571-5.714 3.429-8.571 8.571-8.571 8 0 15.429 5.714 24 17.714v160h38.286zM562.857 292.571v-83.429c0-18.857-1.143-33.143-4-41.714-4.571-16-14.857-24-30.286-24-13.143 0-26.286 8-38.857 23.429v-20.571h-38.286v281.714h38.286v-92c12 14.857 25.143 22.857 38.857 22.857 15.429 0 25.714-8 30.286-24 2.857-8.571 4-22.286 4-42.286zM706.286 218.857v-5.143c0-12.571-0.571-20.571-1.143-24.571-1.143-8.571-4-16-8.571-22.857-10.286-15.429-26.286-22.857-45.714-22.857-20 0-35.429 7.429-46.286 21.714-8 10.286-12 26.857-12 49.143v73.714c0 22.286 3.429 38.286 11.429 49.143 10.857 14.286 26.286 21.714 45.714 21.714 18.857 0 34.286-7.429 44.571-21.714 8-10.857 12-26.857 12-49.143v-43.429h-76v-37.143c0-19.429 6.286-29.143 19.429-29.143 9.143 0 14.857 5.143 17.143 14.857 0 2.286 0.571 10.857 0.571 25.714h38.857zM448.571 689.714v-89.143c0-19.429-6.286-29.143-18.286-29.143-12.571 0-18.286 9.714-18.286 29.143v89.143c0 19.429 5.714 29.714 18.286 29.714 12 0 18.286-10.286 18.286-29.714zM753.143 282.286v0c0 49.143 0 101.143-10.857 148.571-8 33.714-35.429 58.286-68 61.714-77.714 8.571-156.571 8.571-235.429 8.571-78.286 0-157.143 0-234.857-8.571-33.143-3.429-60.571-28-68-61.714-10.857-47.429-11.429-99.429-11.429-148.571v0c0-48.571 0-100.571 11.429-148.571 7.429-33.143 34.857-57.714 67.429-61.714 78.286-8.571 157.143-8.571 235.429-8.571s157.143 0 235.429 8.571c32.571 4 60 28.571 67.429 61.714 11.429 48 11.429 100 11.429 148.571zM321.714 654.286l51.429 169.143h-42.857l-29.143-111.429-30.286 111.429h-44.571c8.571-26.286 18.286-52.571 26.857-78.857 13.714-40 22.286-69.714 26.286-90.286v-114.857h42.286v114.857zM486.857 608v74.286c0 22.286-4 38.857-12 49.714-10.857 14.286-25.714 21.714-44.571 21.714-19.429 0-34.286-7.429-44.571-21.714-8-10.857-12-27.429-12-49.714v-74.286c0-22.286 4-38.857 12-49.714 10.286-14.286 25.143-21.714 44.571-21.714 18.857 0 33.714 7.429 44.571 21.714 8 10.286 12 27.429 12 49.714zM590.286 539.428h38.286v211.429h-38.286v-161.714c-8.571-12-16.571-17.714-24-17.714-5.143 0-8.571 2.857-9.143 9.143-0.571 1.143-0.571 5.714-0.571 14.857v155.429h-38.286v-167.429c0-14.857 1.143-24.571 3.429-31.429 4-10.286 12.571-15.429 24.571-15.429 14.286 0 28.571 8.571 44 25.714v-22.857zM877.714 713.143v-548.571c0-90.857-73.714-164.571-164.571-164.571h-548.571c-90.857 0-164.571 73.714-164.571 164.571v548.571c0 90.857 73.714 164.571 164.571 164.571h548.571c90.857 0 164.571-73.714 164.571-164.571z" />
<glyph unicode="&#xf199;" glyph-name="envelope-square" horiz-adv-x="878" d="M713.143 877.714q68 0 116.286-48.286t48.286-116.286v-548.571q0-68-48.286-116.286t-116.286-48.286h-548.571q-68 0-116.286 48.286t-48.286 116.286v548.571q0 68 48.286 116.286t116.286 48.286h548.571zM731.429 274.286v249.143q-17.714-20-36.571-31.429-19.429-12.571-75.714-48.571t-86.571-56.571q-56-39.429-93.714-39.429v0 0q-37.714 0-93.714 39.429-26.286 18.286-80.857 52.857t-81.429 52.857q-6.857 4.571-18.857 15.429t-17.714 15.429v-249.143q0-22.857 16-38.857t38.857-16h475.429q22.857 0 38.857 16t16 38.857zM731.429 601.714q0 23.429-15.714 40t-39.143 16.571h-475.429q-22.857 0-38.857-16t-16-38.857q0-21.143 17.429-43.714t38.571-36.857q26.857-18.286 78.571-50.857t74-47.429q1.714-1.143 9.714-6.571t12-8 12-7.429 13.429-7.429 12.286-5.429 12.857-4.286 11.714-1.429 11.714 1.429 12.857 4.286 12.286 5.429 13.429 7.429 12 7.429 12 8 9.714 6.571l152.571 99.429q20 13.143 38 35.714t18 42z" />
</font></defs></svg>